{
  "appPageId" : "26f3a209-dc55-4264-ad2b-8c6fd9290193",
  "componentName" : "siteforce:sldsOneColLayout",
  "id" : "7d287a6b-6be1-4b3c-92a4-cbe91dd84008",
  "label" : "Case List",
  "regions" : [ {
    "id" : "6099b1e8-0a4d-4a9d-81e5-4bd8b3e56e03",
    "regionName" : "header",
    "type" : "region"
  }, {
    "components" : [ {
      "componentAttributes" : {
        "enableInlineEdit" : true,
        "filterName" : "{!filterId}",
        "layout" : "FULL",
        "pageSize" : 25,
        "scope" : "{!objectName}",
        "showActionBar" : true,
        "showChartsPanel" : true,
        "showDisplay" : "showall",
        "showFilterPanel" : true,
        "showImageIcon" : true,
        "showManualRefreshButton" : true,
        "showObjectName" : true,
        "showPinnedList" : true,
        "showSearchBar" : true
      },
      "componentName" : "forceCommunity:objectHome",
      "id" : "362b0418-f91a-4c16-bf70-793846ce12a0",
      "renderPriority" : "NEUTRAL",
      "renditionMap" : { },
      "type" : "component"
    } ],
    "id" : "d1b0a031-8c94-4e7c-8759-6145e5acc0d8",
    "regionName" : "content",
    "type" : "region"
  }, {
    "id" : "841cade0-f8e6-4efa-92ea-6eb0ea8ff1c9",
    "regionName" : "footer",
    "type" : "region"
  } ],
  "themeLayoutType" : "Inner",
  "type" : "view",
  "viewType" : "list-500"
}