{
  "appPageId" : "26f3a209-dc55-4264-ad2b-8c6fd9290193",
  "componentName" : "siteforce:sldsOneColLayout",
  "id" : "0b18625c-3d64-4a80-b35b-fe6c7cd2a655",
  "label" : "Dashboard List",
  "regions" : [ {
    "id" : "8a71bfad-e46b-45ba-8db8-e913c473c753",
    "regionName" : "header",
    "type" : "region"
  }, {
    "components" : [ {
      "componentAttributes" : { },
      "componentName" : "forceCommunity:dashboardList",
      "id" : "dbcc586c-4266-4fac-9691-4095933e4399",
      "renderPriority" : "NEUTRAL",
      "renditionMap" : { },
      "type" : "component"
    } ],
    "id" : "9d66839c-de68-4025-b2cb-86cc9f421a51",
    "regionName" : "content",
    "type" : "region"
  }, {
    "id" : "5bf8efa8-6add-4d80-91b8-c52bc4959c6b",
    "regionName" : "footer",
    "type" : "region"
  } ],
  "themeLayoutType" : "Inner",
  "type" : "view",
  "viewType" : "list-01Z"
}