{
  "appPageId" : "26f3a209-dc55-4264-ad2b-8c6fd9290193",
  "componentName" : "siteforce:sldsOneColLayout",
  "id" : "d6df0532-d1fe-43d2-beee-6e20b640b38f",
  "label" : "Group List",
  "regions" : [ {
    "id" : "d2251f7f-917f-4dde-9f62-7a05cdeea136",
    "regionName" : "header",
    "type" : "region"
  }, {
    "components" : [ {
      "componentAttributes" : { },
      "componentName" : "forceCommunity:groupObjectHome",
      "id" : "846651a9-42b6-4573-a4a5-c0045c1ae0be",
      "renderPriority" : "NEUTRAL",
      "renditionMap" : { },
      "type" : "component"
    } ],
    "id" : "862071d3-ece9-4917-9395-e1649694e63b",
    "regionName" : "content",
    "type" : "region"
  }, {
    "id" : "51400bd3-2d9f-49f3-a603-e5922b99458c",
    "regionName" : "footer",
    "type" : "region"
  } ],
  "themeLayoutType" : "Inner",
  "type" : "view",
  "viewType" : "list-0F9"
}