{
  "appPageId" : "26f3a209-dc55-4264-ad2b-8c6fd9290193",
  "componentName" : "siteforce:sldsOneColLayout",
  "id" : "a94914f2-624a-4235-be98-0a4c0a4930ec",
  "label" : "Search",
  "regions" : [ {
    "id" : "c28016d2-8e27-4cca-9837-aa17eae1b145",
    "regionName" : "header",
    "type" : "region"
  }, {
    "components" : [ {
      "componentAttributes" : {
        "scopes" : [ {
          "isPublic" : true,
          "name" : "FeedPost"
        }, {
          "isPublic" : true,
          "name" : "KnowledgeArticleVersion"
        }, {
          "isPublic" : false,
          "name" : "Case"
        }, {
          "isPublic" : true,
          "name" : "CollaborationGroup"
        } ],
        "searchResultFiltering" : true,
        "searchTerm" : "{!term}",
        "showTopResults" : true
      },
      "componentName" : "forceCommunity:search",
      "id" : "817886b2-d8c8-4924-b443-037af6ee571c",
      "renderPriority" : "NEUTRAL",
      "renditionMap" : { },
      "type" : "component"
    } ],
    "id" : "a8b1f4dc-a54a-41bc-a4e4-ec624f4158f9",
    "regionName" : "content",
    "type" : "region"
  }, {
    "id" : "88bb8e87-588e-47d5-93d1-6bf5a3066d76",
    "regionName" : "footer",
    "type" : "region"
  } ],
  "themeLayoutType" : "Inner",
  "type" : "view",
  "viewType" : "global-search"
}