{
  "appPageId" : "e4f43b6d-c6c5-4237-8a9a-154f462cb4b2",
  "componentName" : "siteforce:sldsOneColLayout",
  "id" : "6fec90d4-7435-459f-97bd-f3c1f94228bf",
  "label" : "Error",
  "regions" : [ {
    "id" : "4123b380-e70c-4dd7-9cf8-201666c438b9",
    "regionName" : "header",
    "type" : "region"
  }, {
    "components" : [ {
      "componentAttributes" : {
        "richTextValue" : "<div style='text-align: center;'>Invalid Page</div>"
      },
      "componentName" : "forceCommunity:richTextInline",
      "id" : "5be4656e-73aa-4377-a364-2afc496e26cb",
      "renderPriority" : "NEUTRAL",
      "renditionMap" : { },
      "type" : "component"
    } ],
    "id" : "14943fa4-d5ce-46cd-a0e5-73759f9554e8",
    "regionName" : "content",
    "type" : "region"
  }, {
    "id" : "6476519f-ea34-4253-91c5-efe50c11545c",
    "regionName" : "footer",
    "type" : "region"
  }, {
    "components" : [ {
      "componentAttributes" : {
        "customHeadTags" : "",
        "description" : "",
        "title" : "Error"
      },
      "componentName" : "forceCommunity:seoAssistant",
      "id" : "e1fd8ddb-4209-4bf3-be10-b7bae1af1ed9",
      "renditionMap" : { },
      "type" : "component"
    } ],
    "id" : "b6b10272-4ae0-4846-941f-011f9fda84c5",
    "regionName" : "sfdcHiddenRegion",
    "type" : "region"
  } ],
  "themeLayoutType" : "Inner",
  "type" : "view",
  "viewType" : "error"
}