{
  "appPageId" : "e4f43b6d-c6c5-4237-8a9a-154f462cb4b2",
  "componentName" : "siteforce:sldsOneColLayout",
  "id" : "5782d700-67a4-468b-9cd5-23e6f62432c9",
  "label" : "Home",
  "regions" : [ {
    "components" : [ {
      "componentAttributes" : {
        "maxWidth" : 100,
        "overlayColor" : "rgba(0,0,0,0.4)",
        "overlayHoverColor" : "",
        "radius" : 0,
        "showTitle" : false,
        "textAlignment" : "center",
        "textBgColor" : "rgba(0,0,0,0)",
        "textBgHoverColor" : "rgba(0,0,0,0)",
        "textColor" : "",
        "textHoverColor" : "",
        "textPosition" : "center center",
        "title" : "Featured Topics"
      },
      "componentName" : "forceTopic:featuredTopics",
      "id" : "24273dc6-e438-4508-8580-85554ace77f6",
      "renderPriority" : "NEUTRAL",
      "renditionMap" : { },
      "type" : "component"
    } ],
    "id" : "b504db6d-0561-4916-8d18-d7c2b89917e3",
    "regionName" : "header",
    "type" : "region"
  }, {
    "id" : "6765de7e-f0d3-4add-973c-6db89b9cd39b",
    "regionName" : "content",
    "type" : "region"
  }, {
    "id" : "f51290d6-05c6-4b0e-936c-f365d49d7dad",
    "regionName" : "sidebar",
    "type" : "region"
  }, {
    "id" : "5c2a7d4d-643e-4946-acf1-ed8cb201aced",
    "regionName" : "sidebarAlt",
    "type" : "region"
  }, {
    "id" : "c0f7b4c9-a64d-446f-8cca-6cf6b0ee0c92",
    "regionName" : "footer",
    "type" : "region"
  }, {
    "components" : [ {
      "componentAttributes" : {
        "customHeadTags" : "",
        "description" : "",
        "title" : "Home"
      },
      "componentName" : "forceCommunity:seoAssistant",
      "id" : "2f9eeb2b-b15d-445c-b094-d8cf77a4eba6",
      "renditionMap" : { },
      "type" : "component"
    } ],
    "id" : "07e80920-d078-486b-860c-750335878dd9",
    "regionName" : "sfdcHiddenRegion",
    "type" : "region"
  } ],
  "themeLayoutType" : "Home",
  "type" : "view",
  "viewType" : "home"
}