{
  "activeViewId" : "320f0de9-34f5-4802-a105-c40ca401270f",
  "appPageId" : "a18e22dd-630b-46a8-99b1-564a59111458",
  "configurationTags" : [ ],
  "id" : "2adb53d7-ff32-4b1b-aca0-d43105e6f2a1",
  "label" : "Feed Detail",
  "routeType" : "feeditem-generic",
  "type" : "route",
  "urlPrefix" : "feed"
}