{
  "activeViewId" : "381fe901-662a-4241-a471-5bc10b0bdafa",
  "appPageId" : "a18e22dd-630b-46a8-99b1-564a59111458",
  "configurationTags" : [ ],
  "id" : "4c127599-8ba9-4156-853a-a0bd692fa5d0",
  "label" : "File Related List",
  "routeType" : "relatedlist-069",
  "type" : "route",
  "urlPrefix" : "contentdocument"
}