{
  "activeViewId" : "6a01c881-312b-4209-b7e7-7705fce4fac2",
  "appPageId" : "a18e22dd-630b-46a8-99b1-564a59111458",
  "configurationTags" : [ ],
  "id" : "2edb9a7c-98c3-4853-8f35-c363d26907c9",
  "label" : "Record List",
  "pageAccess" : "UseParent",
  "routeType" : "list",
  "type" : "route",
  "urlPrefix" : "recordlist"
}