{
  "activeViewId" : "737b6e3c-e084-4c21-9b37-e0bfa01f7dcc",
  "appPageId" : "a18e22dd-630b-46a8-99b1-564a59111458",
  "configurationTags" : [ ],
  "id" : "3d976cf0-c597-4ae2-a1d1-29ddb2a5b100",
  "label" : "Record Detail",
  "routeType" : "detail",
  "type" : "route",
  "urlPrefix" : "detail"
}