{
  "activeViewId" : "d6df0532-d1fe-43d2-beee-6e20b640b38f",
  "appPageId" : "26f3a209-dc55-4264-ad2b-8c6fd9290193",
  "configurationTags" : [ ],
  "id" : "dab0b411-abab-40c0-8816-a2370d485189",
  "label" : "Group List",
  "routeType" : "list-0F9",
  "type" : "route",
  "urlPrefix" : "group"
}