{
  "activeViewId" : "6bc8ebd0-8fd8-4d85-82fa-97e449e810eb",
  "appPageId" : "26f3a209-dc55-4264-ad2b-8c6fd9290193",
  "configurationTags" : [ ],
  "id" : "b7e33aee-e084-46d3-b8ce-37f69e3e1973",
  "label" : "Stream List",
  "routeType" : "list-0Fq",
  "type" : "route",
  "urlPrefix" : "streams"
}