{
  "activeViewId" : "52151b32-7b3e-4396-8b06-37f289d0b153",
  "appPageId" : "26f3a209-dc55-4264-ad2b-8c6fd9290193",
  "configurationTags" : [ ],
  "id" : "eea102ac-85cb-4b7f-a427-768c641d2e65",
  "label" : "Topic Catalog",
  "pageAccess" : "UseParent",
  "routeType" : "topic-catalog",
  "type" : "route",
  "urlPrefix" : "topiccatalog"
}